nuarx-bbfdb34d-b831-402a-9fcb-7390a3bc7269
nuarx-bc16ced3-e15a-4687-8c77-269d55020030
nuarx-bc56bdd4-de65-4de4-a503-020db4d26c02
nuarx-bd5023b7-626e-405b-8b45-e2fd8a5443a4
nuarx-bec76413-5e5c-45ea-9f4c-285bbb6fdfe8
nuarx-bf0e99d6-588f-4cad-895b-6090fdc88267
nuarx-bf0eb6a2-f025-437d-9d1c-8eaf9987a3cc
nuarx-bf5ceef8-2ef9-4388-97fe-4e539ec4f1bb
nuarx-bfb8f842-96eb-41f0-9aab-346fa554efa4
nuarx-bfda16da-dc9a-411f-8771-67f7f881acd4
nuarx-c045075d-a98f-4a58-b4f6-22faca142149
nuarx-c04c7d95-42d7-4677-9a88-54e36880fb82
nuarx-c065a866-a7e2-45e9-8ee3-c1185a3b431f
nuarx-c18241e7-3735-4b79-803f-10e3be35a076
nuarx-c228753c-21ee-4be8-80cb-caf96123dfad
nuarx-c232d026-10d5-4bf7-a051-732f9914705d
nuarx-c249010a-b59f-4a7b-984a-6df238e178d8
nuarx-c24d4842-334b-4900-a6c7-9037c23dd2db
nuarx-c25bc2f3-ea9e-454d-a396-19125e421504
nuarx-c2bfbbf7-460a-4832-a216-7db8b0f7031c
nuarx-c2c2e1d5-62e0-48c6-b916-0b5abb4f2c85
nuarx-c310ef30-ce9d-4b55-a29f-615ce258181f
nuarx-c38c87b8-e3b4-4e91-a591-9e101143cecd
nuarx-c402f1d1-4ed1-4ad4-b9b7-9f44e6ab1acd
nuarx-c4394e64-97d2-407d-923b-df233b83fcb2
nuarx-c456137b-9379-44d7-a6ef-b765ab567e18
nuarx-c457b1e6-e16d-4660-b70c-58416a0835ef
nuarx-c499c83d-fa52-496e-9697-f885e5e67b2c
nuarx-c4db5763-e74b-4a89-9d8b-2cf67922005b
nuarx-c535d465-007d-4f1a-b9ae-590bd06ab07b
nuarx-c548059a-b09d-4636-9239-bdf2e9685603
nuarx-c5c40852-3f58-41be-bd31-0f8831923421
nuarx-c6105347-2cd9-4adb-a001-e25db62e2c32
nuarx-c61ee712-e9b3-4cb9-98b5-18ea6ed5192f
nuarx-c6529dd7-ae97-4d1f-ab88-74433adcf478
nuarx-c67bce6c-44cd-472f-a3e8-d3829b5d058a
nuarx-c705cf76-9d05-4835-b1f9-d27bc91cb75d
nuarx-c79e60f9-afce-4f5e-a6c0-1abfb16e11ed
nuarx-c7a91ed8-f336-4656-853e-f6148d5c3731
nuarx-c7b48c62-d68a-45db-91d4-a07b06a87993
nuarx-c7d16fa3-cce3-4dc9-b04f-762ca674c7f4
nuarx-c7e26144-26f9-4158-9ca3-9a4b5a43d12b
nuarx-c876f912-ca6d-498e-9c3b-0ea75e0d7184
nuarx-c927c4e8-4f1c-4cb8-8534-ad1b0cbb5cd9
nuarx-c952a11c-8e0c-4e48-9730-84bd6119734f
nuarx-c95e0ccd-55bf-4964-b2e7-565fbc8acad4
nuarx-ca0b9c4a-0461-460f-82ab-4de1c1b452a2
nuarx-ca18560f-a056-4286-b646-3c4e6e49db88
nuarx-ca9485f9-978d-4e94-9ebb-05f8647eaea4
nuarx-cb0021c8-7f04-4071-b9dd-5822ca6e9e2f
nuarx-cb41aec3-d941-4bee-848c-24e8a96ff2de
nuarx-cb6a67c4-320f-4a65-b9c6-1d3ac643b8af
nuarx-cb8e82a9-340c-4751-8139-5b79776c407c
nuarx-cbcb3edc-17ae-4df2-81cc-b6e675aada53
nuarx-cc18ff92-0000-4473-9516-8fd6a076b1ae
nuarx-ccff594f-a5d1-4420-ab0d-c83a95195d86
nuarx-cd5a7cb8-41f6-4dd8-af25-f8897eb34968
nuarx-cd8903c0-e0a2-4ea8-8f13-a31440bba9cb
nuarx-cf19a66a-658a-4d86-bc3f-219740653f71
nuarx-cf3fba7c-a8ba-4e7e-88d3-c9ed63e001a5
nuarx-cf567279-62c2-428a-b809-bd94c01699d8
nuarx-cff9892a-6bef-4ab7-b1b6-3a053a84f8d5
nuarx-d01c071b-101c-4ba3-b61d-f230de2bea9d
nuarx-d0300641-dee6-4490-951a-1a2ed644c592
nuarx-d0c0acdf-1b09-4de0-b0ce-846bf42c3e0a
nuarx-d0ee51e1-3d98-441e-9cef-8d7ba88a7183
nuarx-d114f40d-8690-499a-b053-6de2080ed31e
nuarx-d22270a0-7bf6-4b36-86ed-32ab8b07a992
nuarx-d242b09a-3dd7-495b-9dd0-bdf5a262f532
nuarx-d27113f3-6eb1-4888-ae83-11ac6930a315
nuarx-d28085fc-4943-48a8-9c11-a9ba1f2552de
nuarx-d2b38669-13f7-4159-ae78-3afcb720b88b
nuarx-d3a70427-f6ff-4be1-beaa-2497053f62e6
nuarx-d3d5d800-0ea3-4f56-9ab2-20f788992d23
nuarx-d4bfdf64-f852-4728-8653-88a17cce2b67
nuarx-d4dc35b1-c99b-4834-b092-80846a07afcb
nuarx-d530ec6d-e22f-4063-ad8c-3b9ab49e8121
nuarx-d5620956-6fb1-4f0d-923e-012d03a118b0
nuarx-d610580d-0793-4fb9-b907-d10f0c353fc3
nuarx-d788ae21-6789-4d17-9739-fdee656225dc
nuarx-d833a082-e4b3-4bbf-877c-7beb994282f6
nuarx-d837d3c0-7e4b-4aa2-b576-8a5d9f9a7a36
nuarx-d8c41570-176a-44ac-a044-f4b706270ebe
nuarx-d8f95d41-dc5b-4219-b0c0-5ada78b67d1d
nuarx-d93268c5-7e6a-4817-a76e-95e18073a3c1
nuarx-dcbb9054-4971-4ede-894c-52801f1def7b
nuarx-dce8aabd-afbb-4772-9f0c-56b6bc16b3a6
nuarx-dd4d1b49-31fc-4529-a7f5-4e2f3c43fa79
nuarx-deae1042-97ce-4ea9-a1f6-5a88eb1b3ed7
nuarx-df1c5b99-c53a-41d9-8e83-dfd1c20918ef
nuarx-df2981cc-2a6f-4bcc-bca1-ded1c12590c3
nuarx-df5f96f0-aaf2-4c97-aa37-7874089a756a
nuarx-e01864f4-71e4-40a5-a276-62003c178099
nuarx-e0435e14-ce49-40d6-a1c7-454204f71e91
nuarx-e063dfa7-bb78-4c60-8444-f800cb675a82
nuarx-e0a9f5e0-b4af-4c18-8fd6-5a21f6ae716c
nuarx-e0ff2b3c-11c4-41d3-8d34-af3b585084c3
nuarx-e140cfe1-a2c6-40c2-822b-bcecc7b55043
nuarx-e15974d6-37d3-4440-95fc-b8a3297c5219
nuarx-e2302723-33ec-4c05-80f6-72993d8f9a0c
nuarx-e2853b3a-f33f-4d0f-abf5-8d58c1f501be
nuarx-e2969379-f92c-4938-99aa-6ffb9d7990e7
nuarx-e33513ee-3281-4b9f-a123-3b6b6e14f86f
nuarx-e3d5f0ab-57e4-4069-bf88-5f2253ff7fc8
nuarx-e46f9719-ae5f-40bf-af44-f7db44a6400d
nuarx-e479c2a5-ba71-4ba9-ba64-9bfd1ff44da4
nuarx-e4e447a2-5ba3-4471-8196-f363851a20a2
nuarx-e563bd9c-70d7-45e5-8434-04b8e5914d84
nuarx-e56a0a94-c5ae-46aa-8471-4b7635891308
nuarx-e5b40655-95f4-4da2-a2a0-77ddeadeb557
nuarx-e61bf5e0-0684-4c8e-83b3-f5373ffe63d0
nuarx-e649395c-a6fd-4ab5-9280-feaa010fe664
nuarx-e717d67a-cb26-4d44-804d-ed94e96651cc
nuarx-e71f8b82-210f-47d3-a2a0-72e4e6eadaad
nuarx-e7a811f0-b21d-4a88-8063-1f451ee3f260
nuarx-e7ce48d8-311b-4857-9231-f408e827896e
nuarx-e87be54c-c68c-4737-a633-4ea97efc46dd
nuarx-e94c529e-de41-403d-89f2-942c44bbc568
nuarx-e966c1a7-8d39-42c6-8dc3-4d65e4331e89
nuarx-eb5b2ef7-7200-4ba0-9157-31f4ea15607b
nuarx-eb619aed-8762-4e7d-943e-026d94c9c6ce
nuarx-eb66e6d8-8655-4898-896a-402eafd86688
nuarx-ebb4d346-4bdc-43ca-9359-48aad849d126
nuarx-ebc5720c-a1ef-4781-9918-79862606209a
nuarx-ebcea3c7-8881-4325-9acd-ec8d1c5e40ec
nuarx-ecaf8aef-086d-42e9-bd74-7ca144714bee
nuarx-ed4411ba-6494-4172-b9a9-e2faababb129
nuarx-edb83ab1-745c-4aad-b219-41222f8f12dc
nuarx-eeab43a6-9537-4572-b17e-700198734e12
nuarx-eeb0d234-f305-44c3-960c-061a38ba0bbb
nuarx-eef732ef-ee62-470f-a638-24c44c17d5a5
nuarx-ef6d5c18-f4f4-4f65-9298-5b46a2c5d6c0
nuarx-ef9f2296-e451-49b7-bb42-b7d8472a93e6
nuarx-f030b971-5891-4592-9cc5-ff8830af23d2
nuarx-f0a5580b-b44c-4552-90b9-3aa962d21250
nuarx-f261cd16-f0dc-4083-ad4b-50c3a14342f3
nuarx-f279d5c7-ba04-40ca-b487-d897197d09f8
nuarx-f297975f-8663-4a93-b66b-5a85547bef8b
nuarx-f2fb285e-ff51-4b7e-bd74-131e227dd0bb
nuarx-f3412d3b-d4a3-4c51-825b-9922eba58834
nuarx-f3562f69-c9e2-4b7e-9159-262d1f35f630
nuarx-f36a7fde-0eda-4584-a530-2fe0e010fcc4
nuarx-f423b000-6d9c-4d05-9e7d-f6a2da040f73
nuarx-f4df5653-e7e6-4541-9478-7730771f0e34
nuarx-f5770729-e073-41fd-b5d2-c616b4464d4b
nuarx-f5793010-8065-4f1a-9f1b-b6e39b0d328c
nuarx-f5829724-6e76-465f-91ff-a099e019a6be
nuarx-f5dd51f8-f23e-4330-9ea8-82400747f7ba
nuarx-f6de9363-3f43-43ae-8b0c-80bf169cd00d
nuarx-f714f599-b231-476e-9cbd-d615d2705087
nuarx-f7c98e7f-0349-4457-9fd6-d18284260fef
nuarx-f7caad76-5ee6-46b8-8984-ad68a771d010
nuarx-f7f2882d-9979-47c2-9edd-189c1cee75ee
nuarx-f8178f9e-e72c-4b9e-a3e8-ef7a48b2fdb6
nuarx-f87f16d3-f42d-45f6-8bd5-ffc6b903e55b
nuarx-f8d3e086-4ad0-4417-bd29-ff9ae3a05586
nuarx-f964c99f-348f-4ff2-b6e8-17e6b166f4d9
nuarx-f992610f-8c7f-42e2-9749-2d4c5ddb235d
nuarx-fa2d101d-c975-4e28-b060-a349b510c5c2
nuarx-fa331f08-bebc-427a-bceb-92dfeaad8a2a
nuarx-fba47b1e-1df4-49a6-b338-34c0233d699f
nuarx-fba68821-b904-4fb9-b34d-3c53d0f43789
nuarx-fc032b4d-e933-4581-bf79-695593b07c9d
nuarx-fc329058-47ad-4435-a5c9-7e8a2ef515dd
nuarx-fcdf55ac-d9bd-41a5-86f7-20abb70b2ea0
nuarx-fd35a8f3-9304-4f95-9b78-bdc69b94878c
nuarx-fdafc26b-be8e-4171-9c60-4a4ac3c17c89
nuarx-fdf34cfe-0eef-448b-b68a-1569ec814568
nuarx-fe445a4e-8a27-4974-bcee-78034371d28a
nuarx-feafe7d4-d8f0-4a46-8a0f-2ced029e9120
nuarx-ff1e8db9-7425-4078-a8e7-7c28029453d2
nuarx-ff5d5854-dcad-4362-989b-31d38c319b57
nuarx-ff6622d8-5dbd-4afd-8fe7-9fda354d9a05
nuarx-ffa83062-47a2-432b-bc08-cf8cd7ef1d3b
nuarx-ffb1bd80-76be-4754-bb3d-b258d720ae4b
